<svg xmlns="http://www.w3.org/2000/svg" width="42" height="42" viewBox="0 0 42 42">
  <g id="Groupe_8771" data-name="Groupe 8771" transform="translate(-1263 -424)">
    <path id="Rectangle_20588" data-name="Rectangle 20588" d="M12,0h6A24,24,0,0,1,42,24v6A12,12,0,0,1,30,42H12A12,12,0,0,1,0,30V12A12,12,0,0,1,12,0Z" transform="translate(1263 424)" fill="#fff"/>
    <g id="Groupe_6176" data-name="Groupe 6176" transform="translate(-6325 5631.999)">
      <path id="Path" d="M10,0,0,10" transform="translate(7604 -5192)" fill="none" stroke="#1a202b" stroke-linecap="round" stroke-linejoin="round" stroke-miterlimit="10" stroke-width="2"/>
      <path id="Path-2" data-name="Path" d="M0,0,10,10" transform="translate(7604 -5192)" fill="none" stroke="#1a202b" stroke-linecap="round" stroke-linejoin="round" stroke-miterlimit="10" stroke-width="2"/>
    </g>
  </g>
</svg>
